Statistics, econometrics, experiment and survey methods, data science: Notes
…
country_model <- function(df) {
  lm(lifeExp ~ year, data = df)
}

The data frames are in a list, so we can use purrr::map() to apply country_model to each element…

However, rather than leaving the list of models as a free-floating object, I think it’s better to store it as a column in the by_country data frame.

(
  by_country <- by_country %>% 
  mutate(model = map(data, country_model))
)

## # A tibble: 142 x 4
## # Groups:   country, continent [142]
##    country     continent data                  model 
##    <fct>       <fct>     <list>                <list>
##  1 Afghanistan Asia      <tibble[,4] [12 × 4]> <lm>  
##  2 Albania     Europe    <tibble[,4] [12 × 4]> <lm>  
##  3 Algeria     Africa    <tibble[,4] [12 × 4]> <lm>  
##  4 Angola      Africa    <tibble[,4] [12 × 4]> <lm>  
##  5 Argentina   Americas  <tibble[,4] [12 × 4]> <lm>  
##  6 Australia   Oceania   <tibble[,4] [12 × 4]> <lm>  
##  7 Austria     Europe    <tibble[,4] [12 × 4]> <lm>  
##  8 Bahrain     Asia      <tibble[,4] [12 × 4]> <lm>  
##  9 Bangladesh  Asia      <tibble[,4] [12 × 4]> <lm>  
## 10 Belgium     Europe    <tibble[,4] [12 × 4]> <lm>  
## # … with 132 more rows

Here, the model list-column is created, resulting from mapping the data list-column (list of tibbles) into the country_model function.

because all the related objects are stored together, you don’t need to manually keep them in sync when you filter or arrange.

To compute the residuals, we need to call add_residuals() with each model-data pair:

by_country <- by_country %>% 
  mutate(
    resids = map2(data, model, add_residuals)
  )
by_country

## # A tibble: 142 x 5
## # Groups:   country, continent [142]
##    country     continent data                  model  resids               
##    <fct>       <fct>     <list>                <list> <list>               
##  1 Afghanistan Asia      <tibble[,4] [12 × 4]> <lm>   <tibble[,5] [12 × 5]>
##  2 Albania     Europe    <tibble[,4] [12 × 4]> <lm>   <tibble[,5] [12 × 5]>
##  3 Algeria     Africa    <tibble[,4] [12 × 4]> <lm>   <tibble[,5] [12 × 5]>
##  4 Angola      Africa    <tibble[,4] [12 × 4]> <lm>   <tibble[,5] [12 × 5]>
##  5 Argentina   Americas  <tibble[,4] [12 × 4]> <lm>   <tibble[,5] [12 × 5]>
##  6 Australia   Oceania   <tibble[,4] [12 × 4]> <lm>   <tibble[,5] [12 × 5]>
##  7 Austria     Europe    <tibble[,4] [12 × 4]> <lm>   <tibble[,5] [12 × 5]>
##  8 Bahrain     Asia      <tibble[,4] [12 × 4]> <lm>   <tibble[,5] [12 × 5]>
##  9 Bangladesh  Asia      <tibble[,4] [12 × 4]> <lm>   <tibble[,5] [12 × 5]>
## 10 Belgium     Europe    <tibble[,4] [12 × 4]> <lm>   <tibble[,5] [12 × 5]>
## # … with 132 more rows

Coding note: How does this syntax work? How do data and model end up referring to columns in the by_country tibble?

Because it’s inside the ‘mutate,’ I guess, so the data frame is implied.

[So that we can plot it] … let’s turn the list of data frames back into a regular data frame. Previously we used nest() to turn a regular data frame into an nested data frame, and now we do the opposite with unnest():

(Note it’s saved as a different object for now)

resids <- unnest(by_country, resids)
resids

## # A tibble: 1,704 x 9
## # Groups:   country, continent [142]
##    country   continent data         model  year lifeExp    pop gdpPercap   resid
##    <fct>     <fct>     <list>       <lis> <int>   <dbl>  <int>     <dbl>   <dbl>
##  1 Afghanis… Asia      <tibble[,4]… <lm>   1952    28.8 8.43e6      779. -1.11  
##  2 Afghanis… Asia      <tibble[,4]… <lm>   1957    30.3 9.24e6      821. -0.952 
##  3 Afghanis… Asia      <tibble[,4]… <lm>   1962    32.0 1.03e7      853. -0.664 
##  4 Afghanis… Asia      <tibble[,4]… <lm>   1967    34.0 1.15e7      836. -0.0172
##  5 Afghanis… Asia      <tibble[,4]… <lm>   1972    36.1 1.31e7      740.  0.674 
##  6 Afghanis… Asia      <tibble[,4]… <lm>   1977    38.4 1.49e7      786.  1.65  
##  7 Afghanis… Asia      <tibble[,4]… <lm>   1982    39.9 1.29e7      978.  1.69  
##  8 Afghanis… Asia      <tibble[,4]… <lm>   1987    40.8 1.39e7      852.  1.28  
##  9 Afghanis… Asia      <tibble[,4]… <lm>   1992    41.7 1.63e7      649.  0.754 
## 10 Afghanis… Asia      <tibble[,4]… <lm>   1997    41.8 2.22e7      635. -0.534 
## # … with 1,694 more rows
…
Above, we add a column glance, resulting from mapping the model column to the broom::glance function. glance gets some key elements of the models’ outputs.

Then we unnest this column. Note that unnest spreads out the elements of the glance output into columns, but as these are specific to each country (but not each year), it doesn’t add more rows (while, e,g., unnesting resids would add more rows).

One way of judging the ‘fit’ of these models… The worst-fitting ones, in terms of R-squared, seem to be in Africa (we save the worst ones as bad_fit:

glance %T>% 
  arrange(r.squared) %T>% print() %>%  #look I get both in one pipe flow with T-pipe and the 'print' side effect
  ggplot(aes(continent, r.squared)) + 
    geom_jitter(width = 0.3) 

## # A tibble: 142 x 17
## # Groups:   country, continent [142]
##    country  continent data  model resids r.squared adj.r.squared sigma statistic
##    <fct>    <fct>     <lis> <lis> <list>     <dbl>         <dbl> <dbl>     <dbl>
##  1 Afghani… Asia      <tib… <lm>  <tibb…     0.948         0.942 1.22      181. 
##  2 Albania  Europe    <tib… <lm>  <tibb…     0.911         0.902 1.98      102. 
##  3 Algeria  Africa    <tib… <lm>  <tibb…     0.985         0.984 1.32      662. 
##  4 Angola   Africa    <tib… <lm>  <tibb…     0.888         0.877 1.41       79.1
##  5 Argenti… Americas  <tib… <lm>  <tibb…     0.996         0.995 0.292    2246. 
##  6 Austral… Oceania   <tib… <lm>  <tibb…     0.980         0.978 0.621     481. 
##  7 Austria  Europe    <tib… <lm>  <tibb…     0.992         0.991 0.407    1261. 
##  8 Bahrain  Asia      <tib… <lm>  <tibb…     0.967         0.963 1.64      291. 
##  9 Banglad… Asia      <tib… <lm>  <tibb…     0.989         0.988 0.977     930. 
## 10 Belgium  Europe    <tib… <lm>  <tibb…     0.995         0.994 0.293    1822. 
## # … with 132 more rows, and 8 more variables: p.value <dbl>, df <dbl>,
## #   logLik <dbl>, AIC <dbl>, BIC <dbl>, deviance <dbl>, df.residual <int>,
## #   nobs <int>
…
Alternatively, you might create them from a named list, using tibble::enframe().

… make sure they’re homogeneous: each element should contain the same type of thing.

20.6.0.1.2 With nesting

nest() creates … a data frame with a list-column of data frames. … each row is a meta-observation:

When applied to a grouped data frame, nest() keeps the grouping columns as is, and bundles everything else into the list-column:

gapminder %>% 
  group_by(country, continent) %>% 
  nest()

## # A tibble: 142 x 3
## # Groups:   country, continent [142]
##    country     continent data                 
##    <fct>       <fct>     <list>               
##  1 Afghanistan Asia      <tibble[,4] [12 × 4]>
##  2 Albania     Europe    <tibble[,4] [12 × 4]>
##  3 Algeria     Africa    <tibble[,4] [12 × 4]>
##  4 Angola      Africa    <tibble[,4] [12 × 4]>
##  5 Argentina   Americas  <tibble[,4] [12 × 4]>
##  6 Australia   Oceania   <tibble[,4] [12 × 4]>
##  7 Austria     Europe    <tibble[,4] [12 × 4]>
##  8 Bahrain     Asia      <tibble[,4] [12 × 4]>
##  9 Bangladesh  Asia      <tibble[,4] [12 × 4]>
## 10 Belgium     Europe    <tibble[,4] [12 × 4]>
## # … with 132 more rows
…
