21 Getting, cleaning and using data | Statistics, econometrics, experiment and survey methods, data science: Notes
…
country_model <- function(df) {
  lm(lifeExp ~ year, data = df)
}

The data frames are in a list, so we can use purrr::map() to apply country_model to each element…

However, rather than leaving the list of models as a free-floating object, I think it’s better to store it as a column in the by_country data frame.

(
  by_country <- by_country %>% 
  mutate(model = map(data, country_model))
)

## # A tibble: 142 x 4
## # Groups:   country, continent [142]
##    country     continent data                  model 
##    <fct>       <fct>     <list>                <list>
##  1 Afghanistan Asia      <tibble[,4] [12 × 4]> <lm>  
##  2 Albania     Europe    <tibble[,4] [12 × 4]> <lm>  
##  3 Algeria     Africa    <tibble[,4] [12 × 4]> <lm>  
##  4 Angola      Africa    <tibble[,4] [12 × 4]> <lm>  
##  5 Argentina   Americas  <tibble[,4] [12 × 4]> <lm>  
##  6 Australia   Oceania   <tibble[,4] [12 × 4]> <lm>  
##  7 Austria     Europe    <tibble[,4] [12 × 4]> <lm>  
##  8 Bahrain     Asia      <tibble[,4] [12 × 4]> <lm>  
##  9 Bangladesh  Asia      <tibble[,4] [12 × 4]> <lm>  
## 10 Belgium     Europe    <tibble[,4] [12 × 4]> <lm>  
## # … with 132 more rows

Here, the model list-column is created, resulting from mapping the data list-column (list of tibbles) into the country_model function.

because all the related objects are stored together, you don’t need to manually keep them in sync when you filter or arrange.

To compute the residuals, we need to call add_residuals() with each model-data pair:

by_country <- by_country %>% 
  mutate(
    resids = map2(data, model, add_residuals)
  )
by_country

## # A tibble: 142 x 5
## # Groups:   country, continent [142]
##    country     continent data                  model  resids               
##    <fct>       <fct>     <list>                <list> <list>               
##  1 Afghanistan Asia      <tibble[,4] [12 × 4]> <lm>   <tibble[,5] [12 × 5]>
##  2 Albania     Europe    <tibble[,4] [12 × 4]> <lm>   <tibble[,5] [12 × 5]>
##  3 Algeria     Africa    <tibble[,4] [12 × 4]> <lm>   <tibble[,5] [12 × 5]>
##  4 Angola      Africa    <tibble[,4] [12 × 4]> <lm>   <tibble[,5] [12 × 5]>
##  5 Argentina   Americas  <tibble[,4] [12 × 4]> <lm>   <tibble[,5] [12 × 5]>
##  6 Australia   Oceania   <tibble[,4] [12 × 4]> <lm>   <tibble[,5] [12 × 5]>
##  7 Austria     Europe    <tibble[,4] [12 × 4]> <lm>   <tibble[,5] [12 × 5]>
##  8 Bahrain     Asia      <tibble[,4] [12 × 4]> <lm>   <tibble[,5] [12 × 5]>
##  9 Bangladesh  Asia      <tibble[,4] [12 × 4]> <lm>   <tibble[,5] [12 × 5]>
## 10 Belgium     Europe    <tibble[,4] [12 × 4]> <lm>   <tibble[,5] [12 × 5]>
## # … with 132 more rows

Coding note: How does this syntax work? How do data and model end up referring to columns in the by_country tibble?

Because it’s inside the ‘mutate,’ I guess, so the data frame is implied.

[So that we can plot it] … let’s turn the list of data frames back into a regular data frame. Previously we used nest() to turn a regular data frame into an nested data frame, and now we do the opposite with unnest():

(Note it’s saved as a different object for now)

resids <- unnest(by_country, resids)
resids

## # A tibble: 1,704 x 9
## # Groups:   country, continent [142]
##    country     continent data                  model   year lifeExp      pop gdpPercap   resid
##    <fct>       <fct>     <list>                <list> <int>   <dbl>    <int>     <dbl>   <dbl>
##  1 Afghanistan Asia      <tibble[,4] [12 × 4]> <lm>    1952    28.8  8425333      779. -1.11  
##  2 Afghanistan Asia      <tibble[,4] [12 × 4]> <lm>    1957    30.3  9240934      821. -0.952 
##  3 Afghanistan Asia      <tibble[,4] [12 × 4]> <lm>    1962    32.0 10267083      853. -0.664 
##  4 Afghanistan Asia      <tibble[,4] [12 × 4]> <lm>    1967    34.0 11537966      836. -0.0172
##  5 Afghanistan Asia      <tibble[,4] [12 × 4]> <lm>    1972    36.1 13079460      740.  0.674 
##  6 Afghanistan Asia      <tibble[,4] [12 × 4]> <lm>    1977    38.4 14880372      786.  1.65  
##  7 Afghanistan Asia      <tibble[,4] [12 × 4]> <lm>    1982    39.9 12881816      978.  1.69  
##  8 Afghanistan Asia      <tibble[,4] [12 × 4]> <lm>    1987    40.8 13867957      852.  1.28  
##  9 Afghanistan Asia      <tibble[,4] [12 × 4]> <lm>    1992    41.7 16317921      649.  0.754 
## 10 Afghanistan Asia      <tibble[,4] [12 × 4]> <lm>    1997    41.8 22227415      635. -0.534 
## # … with 1,694 more rows
…
Above, we add a column glance, resulting from mapping the model column to the broom::glance function. glance gets some key elements of the models’ outputs.

Then we unnest this column. Note that unnest spreads out the elements of the glance output into columns, but as these are specific to each country (but not each year), it doesn’t add more rows (while, e,g., unnesting resids would add more rows).

One way of judging the ‘fit’ of these models… The worst-fitting ones, in terms of R-squared, seem to be in Africa (we save the worst ones as bad_fit:

glance %T>% 
  arrange(r.squared) %T>% print() %>%  #look I get both in one pipe flow with T-pipe and the 'print' side effect
  ggplot(aes(continent, r.squared)) + 
    geom_jitter(width = 0.3) 

## # A tibble: 142 x 17
## # Groups:   country, continent [142]
##    country  continent data   model resids  r.squared adj.r.squared sigma statistic  p.value    df logLik
##    <fct>    <fct>     <list> <lis> <list>      <dbl>         <dbl> <dbl>     <dbl>    <dbl> <dbl>  <dbl>
##  1 Afghani… Asia      <tibb… <lm>  <tibbl…     0.948         0.942 1.22      181.  9.84e- 8     1 -18.3 
##  2 Albania  Europe    <tibb… <lm>  <tibbl…     0.911         0.902 1.98      102.  1.46e- 6     1 -24.1 
##  3 Algeria  Africa    <tibb… <lm>  <tibbl…     0.985         0.984 1.32      662.  1.81e-10     1 -19.3 
##  4 Angola   Africa    <tibb… <lm>  <tibbl…     0.888         0.877 1.41       79.1 4.59e- 6     1 -20.0 
##  5 Argenti… Americas  <tibb… <lm>  <tibbl…     0.996         0.995 0.292    2246.  4.22e-13     1  -1.17
##  6 Austral… Oceania   <tibb… <lm>  <tibbl…     0.980         0.978 0.621     481.  8.67e-10     1 -10.2 
##  7 Austria  Europe    <tibb… <lm>  <tibbl…     0.992         0.991 0.407    1261.  7.44e-12     1  -5.16
##  8 Bahrain  Asia      <tibb… <lm>  <tibbl…     0.967         0.963 1.64      291.  1.02e- 8     1 -21.9 
##  9 Banglad… Asia      <tibb… <lm>  <tibbl…     0.989         0.988 0.977     930.  3.37e-11     1 -15.7 
## 10 Belgium  Europe    <tibb… <lm>  <tibbl…     0.995         0.994 0.293    1822.  1.20e-12     1  -1.20
## # … with 132 more rows, and 5 more variables: AIC <dbl>, BIC <dbl>, deviance <dbl>, df.residual <int>,
## #   nobs <int>
…
Alternatively, you might create them from a named list, using tibble::enframe().

… make sure they’re homogeneous: each element should contain the same type of thing.

21.6.0.1.2 With nesting

nest() creates … a data frame with a list-column of data frames. … each row is a meta-observation:

When applied to a grouped data frame, nest() keeps the grouping columns as is, and bundles everything else into the list-column:

gapminder %>% 
  group_by(country, continent) %>% 
  nest()

## # A tibble: 142 x 3
## # Groups:   country, continent [142]
##    country     continent data                 
##    <fct>       <fct>     <list>               
##  1 Afghanistan Asia      <tibble[,4] [12 × 4]>
##  2 Albania     Europe    <tibble[,4] [12 × 4]>
##  3 Algeria     Africa    <tibble[,4] [12 × 4]>
##  4 Angola      Africa    <tibble[,4] [12 × 4]>
##  5 Argentina   Americas  <tibble[,4] [12 × 4]>
##  6 Australia   Oceania   <tibble[,4] [12 × 4]>
##  7 Austria     Europe    <tibble[,4] [12 × 4]>
##  8 Bahrain     Asia      <tibble[,4] [12 × 4]>
##  9 Bangladesh  Asia      <tibble[,4] [12 × 4]>
## 10 Belgium     Europe    <tibble[,4] [12 × 4]>
## # … with 132 more rows

You can also use it on an ungrouped data frame, specifying which columns you want to nest [i.e., all but country and continent below]

gapminder %>% 
  nest(data = c(year:gdpPercap))

## # A tibble: 142 x 3
##    country     continent data                 
##    <fct>       <fct>     <list>               
##  1 Afghanistan Asia      <tibble[,4] [12 × 4]>
##  2 Albania     Europe    <tibble[,4] [12 × 4]>
##  3 Algeria     Africa    <tibble[,4] [12 × 4]>
##  4 Angola      Africa    <tibble[,4] [12 × 4]>
##  5 Argentina   Americas  <tibble[,4] [12 × 4]>
##  6 Australia   Oceania   <tibble[,4] [12 × 4]>
##  7 Austria     Europe    <tibble[,4] [12 × 4]>
##  8 Bahrain     Asia      <tibble[,4] [12 × 4]>
##  9 Bangladesh  Asia      <tibble[,4] [12 × 4]>
## 10 Belgium     Europe    <tibble[,4] [12 × 4]>
## # … with 132 more rows
…
